Estimating Rotemberg Weights for a Bartik "Instrument" — bw • bartik.weight
…
library(bartik.weight)

index = c("czone", "year")
y = "d_sh_empl_mfg"
x = "d_tradeusch_pw"
controls = c("reg_midatl", "reg_encen", "reg_wncen", "reg_satl",
  "reg_escen", "reg_wscen", "reg_mount", "reg_pacif", "l_sh_popedu_c",
  "l_sh_popfborn", "l_sh_empl_f", "l_sh_routine33", "l_task_outsource",
  "t2", "l_shind_manuf_cbp")
weight = "timepwt48"
Z = setdiff(names(ADH_local_wide), index)
G = "trade_"

bw(ADH_master, y, x, controls, weight, ADH_local_wide, Z, ADH_global, G)
#> # A tibble: 780 x 5
#>     year ind     trade_        alpha     beta
#>    <dbl> <chr>    <dbl>        <dbl>    <dbl>
#>  1 1990. 2011   1.21    -0.00102      -2.80  
#>  2 1990. 2015   7.46    -0.0104       -1.06  
#>  3 1990. 2022   0.00698  0.000000663   7.74  
#>  4 1990. 2023   3.16     0.0000676     8.82  
#>  5 1990. 2024   0.       0.            3.93  
#>  6 1990. 2026   0.0333   0.0000218    -0.0432
#>  7 1990. 2032   0.176    0.00000474   13.6   
#>  8 1990. 2033   3.78     0.0000286    29.0   
#>  9 1990. 2034  12.2     -0.00188       0.923 
#> 10 1990. 2035   5.11    -0.000357      1.59  
#> # ... with 770 more rows
…
